\relax 
\providecommand\hyper@newdestlabel[2]{}
\citation{syllableContinuous}
\citation{onDevPunctuation}
\citation{suyantoGreedy}
\@writefile{toc}{\contentsline {chapter}{\numberline {I}\uppercase {Pendahuluan}}{1}{chapter.1}}
\@writefile{lof}{\addvspace {10\p@ }}
\@writefile{lot}{\addvspace {10\p@ }}
\@writefile{toc}{\contentsline {section}{\numberline {1.1}Latar Belakang}{1}{section.1.1}}
\@writefile{toc}{\contentsline {section}{\numberline {1.2}Rumusan Masalah}{1}{section.1.2}}
\@writefile{toc}{\contentsline {section}{\numberline {1.3}Tujuan}{2}{section.1.3}}
\@writefile{toc}{\contentsline {section}{\numberline {1.4}Batasan Masalah}{2}{section.1.4}}
\@writefile{toc}{\contentsline {section}{\numberline {1.5}Metodologi Penyelesaian Masalah}{2}{section.1.5}}
\@writefile{toc}{\contentsline {section}{\numberline {1.6}Sistematika Penulisan}{2}{section.1.6}}
\@setckpt{bab1}{
\setcounter{page}{4}
\setcounter{equation}{0}
\setcounter{enumi}{5}
\setcounter{enumii}{0}
\setcounter{enumiii}{0}
\setcounter{enumiv}{0}
\setcounter{footnote}{0}
\setcounter{mpfootnote}{0}
\setcounter{part}{0}
\setcounter{chapter}{1}
\setcounter{section}{6}
\setcounter{subsection}{0}
\setcounter{subsubsection}{0}
\setcounter{paragraph}{0}
\setcounter{subparagraph}{0}
\setcounter{figure}{0}
\setcounter{table}{0}
\setcounter{Item}{21}
\setcounter{Hfootnote}{0}
\setcounter{bookmark@seq@number}{16}
\setcounter{ContinuedFloat}{0}
\setcounter{parentequation}{0}
\setcounter{AM@survey}{0}
\setcounter{float@type}{16}
\setcounter{algorithm}{0}
\setcounter{ALG@line}{0}
\setcounter{ALG@rem}{0}
\setcounter{ALG@nested}{0}
\setcounter{ALG@Lnr}{2}
\setcounter{ALG@blocknr}{10}
\setcounter{ALG@storecount}{0}
\setcounter{ALG@tmpcounter}{0}
\setcounter{lstnumber}{1}
\setcounter{r@tfl@t}{0}
\setcounter{section@level}{1}
\setcounter{lstlisting}{0}
}
