\relax 
\providecommand\hyper@newdestlabel[2]{}
\citation{suyantoHartanti}
\@writefile{toc}{\contentsline {chapter}{\numberline {II}\uppercase {Tinjauan Pustaka}}{4}{chapter.2}}
\@writefile{lof}{\addvspace {10\p@ }}
\@writefile{lot}{\addvspace {10\p@ }}
\@writefile{toc}{\contentsline {section}{\numberline {2.1}Reference Tracing}{4}{section.2.1}}
\@writefile{toc}{\contentsline {section}{\numberline {2.2}Silabel}{4}{section.2.2}}
\citation{onDevPunctuation}
\citation{humanLanguageTechnology}
\@writefile{lot}{\contentsline {table}{\numberline {2.1}{\ignorespaces Struktur Silabel\relax }}{5}{table.caption.2}}
\providecommand*\caption@xref[2]{\@setref\relax\@undefined{#1}}
\newlabel{Struktur Silabel}{{2.1}{5}{Struktur Silabel\relax }{table.caption.2}{}}
\@writefile{toc}{\contentsline {section}{\numberline {2.3}Tanda Baca}{5}{section.2.3}}
\@writefile{toc}{\contentsline {section}{\numberline {2.4}Himpunan Kalimat Minimum}{5}{section.2.4}}
\citation{geneticAlgorithm}
\citation{greedyNIST}
\@writefile{toc}{\contentsline {section}{\numberline {2.5}Algoritma \textit  {Greedy}}{6}{section.2.5}}
\@setckpt{bab2}{
\setcounter{page}{7}
\setcounter{equation}{0}
\setcounter{enumi}{5}
\setcounter{enumii}{0}
\setcounter{enumiii}{0}
\setcounter{enumiv}{0}
\setcounter{footnote}{0}
\setcounter{mpfootnote}{0}
\setcounter{part}{0}
\setcounter{chapter}{2}
\setcounter{section}{5}
\setcounter{subsection}{0}
\setcounter{subsubsection}{0}
\setcounter{paragraph}{0}
\setcounter{subparagraph}{0}
\setcounter{figure}{0}
\setcounter{table}{1}
\setcounter{Item}{21}
\setcounter{Hfootnote}{0}
\setcounter{bookmark@seq@number}{22}
\setcounter{ContinuedFloat}{0}
\setcounter{parentequation}{0}
\setcounter{AM@survey}{0}
\setcounter{float@type}{16}
\setcounter{algorithm}{0}
\setcounter{ALG@line}{0}
\setcounter{ALG@rem}{0}
\setcounter{ALG@nested}{0}
\setcounter{ALG@Lnr}{2}
\setcounter{ALG@blocknr}{10}
\setcounter{ALG@storecount}{0}
\setcounter{ALG@tmpcounter}{0}
\setcounter{lstnumber}{1}
\setcounter{r@tfl@t}{0}
\setcounter{section@level}{1}
\setcounter{lstlisting}{0}
}
