\relax 
\providecommand\hyper@newdestlabel[2]{}
\citation{suyantoGreedy}
\@writefile{toc}{\contentsline {chapter}{\numberline {III}\uppercase {Rancangan Sistem}}{7}{chapter.3}}
\@writefile{lof}{\addvspace {10\p@ }}
\@writefile{lot}{\addvspace {10\p@ }}
\@writefile{toc}{\contentsline {section}{\numberline {3.1}Sistem yang dikembangkan}{7}{section.3.1}}
\@writefile{toc}{\contentsline {subsection}{\numberline {3.1.1}Deskripsi Sistem}{7}{subsection.3.1.1}}
\@writefile{lof}{\contentsline {figure}{\numberline {3.1}{\ignorespaces Kerja Sistem\relax }}{7}{figure.caption.3}}
\newlabel{Kerja Sistem}{{3.1}{7}{Kerja Sistem\relax }{figure.caption.3}{}}
\@writefile{toc}{\contentsline {subsection}{\numberline {3.1.2}Data Penelitian}{8}{subsection.3.1.2}}
\@writefile{toc}{\contentsline {subsection}{\numberline {3.1.3}Preprocessing}{8}{subsection.3.1.3}}
\@writefile{lot}{\contentsline {table}{\numberline {3.1}{\ignorespaces Himpunan Kalimat Induk\relax }}{8}{table.caption.4}}
\newlabel{HimpunanKalimatInduk}{{3.1}{8}{Himpunan Kalimat Induk\relax }{table.caption.4}{}}
\@writefile{lot}{\contentsline {table}{\numberline {3.2}{\ignorespaces Silabel dalam sebuah kalimat\relax }}{8}{table.caption.5}}
\newlabel{SilabelDalamKalimat}{{3.2}{8}{Silabel dalam sebuah kalimat\relax }{table.caption.5}{}}
\citation{suyantoGreedy}
\@writefile{lot}{\contentsline {table}{\numberline {3.3}{\ignorespaces Kalimat-kalimat yang mengandung silabel a\relax }}{9}{table.caption.6}}
\newlabel{kalimatDalamSilabel}{{3.3}{9}{Kalimat-kalimat yang mengandung silabel a\relax }{table.caption.6}{}}
\@writefile{lot}{\contentsline {table}{\numberline {3.4}{\ignorespaces Silabel-silabel dalam sebuah kata\relax }}{9}{table.caption.7}}
\newlabel{SilabelSilabelDalamKata}{{3.4}{9}{Silabel-silabel dalam sebuah kata\relax }{table.caption.7}{}}
\@writefile{toc}{\contentsline {subsection}{\numberline {3.1.4}Modified LTM Greedy Algorithm}{9}{subsection.3.1.4}}
\citation{suyantoGreedy}
\citation{wahidTA}
\@writefile{toc}{\contentsline {subsection}{\numberline {3.1.5}Semi LTM Greedy 1}{10}{subsection.3.1.5}}
\@writefile{toc}{\contentsline {subsection}{\numberline {3.1.6}Semi LTM Greedy 2}{10}{subsection.3.1.6}}
\citation{paretoOptimal}
\@writefile{toc}{\contentsline {section}{\numberline {3.2}Metode Pengujian Sistem}{11}{section.3.2}}
\@setckpt{bab3}{
\setcounter{page}{12}
\setcounter{equation}{4}
\setcounter{enumi}{3}
\setcounter{enumii}{0}
\setcounter{enumiii}{0}
\setcounter{enumiv}{0}
\setcounter{footnote}{0}
\setcounter{mpfootnote}{0}
\setcounter{part}{0}
\setcounter{chapter}{3}
\setcounter{section}{2}
\setcounter{subsection}{0}
\setcounter{subsubsection}{0}
\setcounter{paragraph}{0}
\setcounter{subparagraph}{0}
\setcounter{figure}{1}
\setcounter{table}{4}
\setcounter{Item}{34}
\setcounter{Hfootnote}{0}
\setcounter{bookmark@seq@number}{31}
\setcounter{ContinuedFloat}{0}
\setcounter{parentequation}{0}
\setcounter{AM@survey}{0}
\setcounter{float@type}{16}
\setcounter{algorithm}{0}
\setcounter{ALG@line}{0}
\setcounter{ALG@rem}{0}
\setcounter{ALG@nested}{0}
\setcounter{ALG@Lnr}{2}
\setcounter{ALG@blocknr}{10}
\setcounter{ALG@storecount}{0}
\setcounter{ALG@tmpcounter}{0}
\setcounter{lstnumber}{1}
\setcounter{r@tfl@t}{0}
\setcounter{section@level}{1}
\setcounter{lstlisting}{0}
}
