\relax 
\providecommand\hyper@newdestlabel[2]{}
\@writefile{toc}{\contentsline {chapter}{\numberline {IV}\uppercase {Pengujian dan Analisis}}{12}{chapter.4}}
\@writefile{lof}{\addvspace {10\p@ }}
\@writefile{lot}{\addvspace {10\p@ }}
\@writefile{toc}{\contentsline {section}{\numberline {4.1}Pengujian}{12}{section.4.1}}
\@writefile{toc}{\contentsline {subsection}{\numberline {4.1.1}Skenario 1 : Modified LTM Greedy}{12}{subsection.4.1.1}}
\@writefile{toc}{\contentsline {subsection}{\numberline {4.1.2}Skenario 2 : Semi LTM Greedy}{13}{subsection.4.1.2}}
\@writefile{toc}{\contentsline {section}{\numberline {4.2}Analisis Hasil Pengujian}{13}{section.4.2}}
\@writefile{toc}{\contentsline {subsection}{\numberline {4.2.1}Monosilabis}{13}{subsection.4.2.1}}
\@writefile{toc}{\contentsline {subsubsection}{\numberline {4.2.1.1}Data asli}{13}{subsubsection.4.2.1.1}}
\@writefile{toc}{\contentsline {subsubsection}{\numberline {4.2.1.2}Skenario 1 : Modified LTM Greedy}{13}{subsubsection.4.2.1.2}}
\@writefile{toc}{\contentsline {subsubsection}{\numberline {4.2.1.3}Skenario 2 : Semi LTM Greedy 1 dan Semi LTM Greedy 2}{13}{subsubsection.4.2.1.3}}
\@writefile{lof}{\contentsline {figure}{\numberline {4.1}{\ignorespaces Grafik Frekuensi Unit Silabel\relax }}{13}{figure.caption.8}}
\newlabel{fig:grafikMonosilabis}{{4.1}{13}{Grafik Frekuensi Unit Silabel\relax }{figure.caption.8}{}}
\@writefile{lot}{\contentsline {table}{\numberline {4.1}{\ignorespaces Hasil Monosilabis untuk setiap percobaan\relax }}{14}{table.caption.9}}
\newlabel{HasilMonosilabis}{{4.1}{14}{Hasil Monosilabis untuk setiap percobaan\relax }{table.caption.9}{}}
\@writefile{lof}{\contentsline {figure}{\numberline {4.2}{\ignorespaces Visualisasi hasil dengan nomor sesuai tabel\relax }}{14}{figure.caption.10}}
\newlabel{fig:figVisualisasi}{{4.2}{14}{Visualisasi hasil dengan nomor sesuai tabel\relax }{figure.caption.10}{}}
\@writefile{toc}{\contentsline {subsection}{\numberline {4.2.2}Bisilabis}{15}{subsection.4.2.2}}
\@writefile{toc}{\contentsline {subsubsection}{\numberline {4.2.2.1}Data asli}{15}{subsubsection.4.2.2.1}}
\@writefile{toc}{\contentsline {subsubsection}{\numberline {4.2.2.2}Skenario 1 : Modified LTM Greedy}{15}{subsubsection.4.2.2.2}}
\@writefile{toc}{\contentsline {subsubsection}{\numberline {4.2.2.3}Skenario 2 : Semi LTM Greedy 1 dan Semi LTM Greedy 2}{15}{subsubsection.4.2.2.3}}
\@writefile{lof}{\contentsline {figure}{\numberline {4.3}{\ignorespaces Grafik Frekuensi Unit Silabel\relax }}{16}{figure.caption.11}}
\newlabel{fig:grafikBisilabel}{{4.3}{16}{Grafik Frekuensi Unit Silabel\relax }{figure.caption.11}{}}
\@writefile{lot}{\contentsline {table}{\numberline {4.2}{\ignorespaces Hasil Bisilabis untuk setiap percobaan\relax }}{16}{table.caption.12}}
\newlabel{hasilBisilabel}{{4.2}{16}{Hasil Bisilabis untuk setiap percobaan\relax }{table.caption.12}{}}
\@writefile{lof}{\contentsline {figure}{\numberline {4.4}{\ignorespaces Visualisasi hasil dengan nomor sesuai tabel\relax }}{17}{figure.caption.13}}
\newlabel{fig:paretoBisilabis}{{4.4}{17}{Visualisasi hasil dengan nomor sesuai tabel\relax }{figure.caption.13}{}}
\@setckpt{bab4}{
\setcounter{page}{18}
\setcounter{equation}{0}
\setcounter{enumi}{2}
\setcounter{enumii}{0}
\setcounter{enumiii}{0}
\setcounter{enumiv}{0}
\setcounter{footnote}{0}
\setcounter{mpfootnote}{0}
\setcounter{part}{0}
\setcounter{chapter}{4}
\setcounter{section}{2}
\setcounter{subsection}{2}
\setcounter{subsubsection}{3}
\setcounter{paragraph}{0}
\setcounter{subparagraph}{0}
\setcounter{figure}{4}
\setcounter{table}{2}
\setcounter{Item}{39}
\setcounter{Hfootnote}{0}
\setcounter{bookmark@seq@number}{44}
\setcounter{ContinuedFloat}{0}
\setcounter{parentequation}{0}
\setcounter{AM@survey}{0}
\setcounter{float@type}{16}
\setcounter{algorithm}{0}
\setcounter{ALG@line}{0}
\setcounter{ALG@rem}{0}
\setcounter{ALG@nested}{0}
\setcounter{ALG@Lnr}{2}
\setcounter{ALG@blocknr}{10}
\setcounter{ALG@storecount}{0}
\setcounter{ALG@tmpcounter}{0}
\setcounter{lstnumber}{1}
\setcounter{r@tfl@t}{0}
\setcounter{section@level}{3}
\setcounter{lstlisting}{0}
}
