\relax 
\providecommand\hyper@newdestlabel[2]{}
\bibcite{suyantoGreedy}{1}
\bibcite{onDevPunctuation}{2}
\bibcite{suyantoHartanti}{3}
\bibcite{wahidTA}{4}
\bibcite{greedyNIST}{5}
\bibcite{syllableContinuous}{6}
\bibcite{corpusUrdu}{7}
\bibcite{efficientMinimumSentenceSet}{8}
\bibcite{humanLanguageTechnology}{9}
\bibcite{introAlgorithms}{10}
\@writefile{toc}{\contentsline {chapter}{DAFTAR PUSTAKA}{19}{Item.46}}
\bibcite{sylabification}{11}
\bibcite{geneticAlgorithm}{12}
\bibcite{paretoOptimal}{13}
\@setckpt{daftarIsi}{
\setcounter{page}{21}
\setcounter{equation}{0}
\setcounter{enumi}{2}
\setcounter{enumii}{0}
\setcounter{enumiii}{0}
\setcounter{enumiv}{13}
\setcounter{footnote}{0}
\setcounter{mpfootnote}{0}
\setcounter{part}{0}
\setcounter{chapter}{5}
\setcounter{section}{2}
\setcounter{subsection}{0}
\setcounter{subsubsection}{0}
\setcounter{paragraph}{0}
\setcounter{subparagraph}{0}
\setcounter{figure}{0}
\setcounter{table}{0}
\setcounter{Item}{46}
\setcounter{Hfootnote}{0}
\setcounter{bookmark@seq@number}{48}
\setcounter{ContinuedFloat}{0}
\setcounter{parentequation}{0}
\setcounter{AM@survey}{0}
\setcounter{float@type}{16}
\setcounter{algorithm}{0}
\setcounter{ALG@line}{0}
\setcounter{ALG@rem}{0}
\setcounter{ALG@nested}{0}
\setcounter{ALG@Lnr}{2}
\setcounter{ALG@blocknr}{10}
\setcounter{ALG@storecount}{0}
\setcounter{ALG@tmpcounter}{0}
\setcounter{lstnumber}{1}
\setcounter{r@tfl@t}{0}
\setcounter{section@level}{1}
\setcounter{lstlisting}{0}
}
