\relax 
\providecommand\hyper@newdestlabel[2]{}
\providecommand\HyperFirstAtBeginDocument{\AtBeginDocument}
\HyperFirstAtBeginDocument{\ifx\hyper@anchor\@undefined
\global\let\oldcontentsline\contentsline
\gdef\contentsline#1#2#3#4{\oldcontentsline{#1}{#2}{#3}}
\global\let\oldnewlabel\newlabel
\gdef\newlabel#1#2{\newlabelxx{#1}#2}
\gdef\newlabelxx#1#2#3#4#5#6{\oldnewlabel{#1}{{#2}{#3}}}
\AtEndDocument{\ifx\hyper@anchor\@undefined
\let\contentsline\oldcontentsline
\let\newlabel\oldnewlabel
\fi}
\fi}
\global\let\hyper@last\relax 
\gdef\HyperFirstAtBeginDocument#1{#1}
\providecommand\HyField@AuxAddToFields[1]{}
\providecommand\HyField@AuxAddToCoFields[2]{}
\@input{sampul.aux}
\@input{lembarPernyataan.aux}
\@input{persetujuan.aux}
\@input{abstrak.aux}
\@input{abstract.aux}
\@input{lembarPersembahan.aux}
\@input{kataPengantar.aux}
\@writefile{toc}{\contentsline {chapter}{DAFTAR ISI}{viii}{Item.7}}
\@writefile{toc}{\contentsline {chapter}{DAFTAR GAMBAR}{x}{Item.7}}
\@writefile{toc}{\contentsline {chapter}{DAFTAR TABEL}{xi}{Item.7}}
\@input{bab1.aux}
\@input{bab2.aux}
\@input{bab3.aux}
\@input{bab4.aux}
\@input{bab5.aux}
\@input{daftarIsi.aux}
